%YAML 1.1
%TAG !u! tag:unity3d.com,2011:
--- !u!114 &11400000
MonoBehaviour:
  m_ObjectHideFlags: 0
  m_CorrespondingSourceObject: {fileID: 0}
  m_PrefabInstance: {fileID: 0}
  m_PrefabAsset: {fileID: 0}
  m_GameObject: {fileID: 0}
  m_Enabled: 1
  m_EditorHideFlags: 0
  m_Script: {fileID: 11500000, guid: 08265a339fd2bba4db85f5d4a8c4d726, type: 3}
  m_Name: Level_5
  m_EditorClassIdentifier: 
  data:
  - 0000000
  - 000g000
  - 001b100
  - 0c11110
  - 0011100
  - 000p000
  - 0000000
  starsMoveCount: 0d0000000a00000007000000
